Chimiometrie 2019 Data Set — data_chimiometrie_2019 • modeldatatoo
…
J.A. Fernández Pierna, A. Laborde, L. Lakhal, M. Lesnoff, M. Martin, Y.
Roggo, and P. Dardenne (2020) "The applicability of vibrational spectroscopy
and multivariate analysis for the characterization of animal feed where the
reference values do not follow a normal distribution: A new chemometric
challenge posed at the 'Chimiométrie 2019' congress," Chemometrics and
Intelligent Laboratory Systems, vol 202, p. 104026.
doi:10.1016/j.chemolab.2020.104026

    Examples

# \donttest{
data_chimiometrie_2019()
#> # A tibble: 6,915 × 553
#>    soy_oil lucerne barley wvlgth_001 wvlgth_002 wvlgth_003 wvlgth_004
#>      <dbl>   <dbl>  <dbl>      <dbl>      <dbl>      <dbl>      <dbl>
#>  1     2.1    23.6      0      0.208      0.207      0.207      0.207
#>  2     2.1    23.6      0      0.206      0.206      0.206      0.206
#>  3     2.1    23.6      0      0.207      0.207      0.207      0.206
#>  4     0.5    25        4      0.206      0.206      0.205      0.205
#>  5     0.5    25        4      0.201      0.200      0.200      0.200
#>  6     0.5    25        4      0.206      0.205      0.205      0.205
#>  7     0.5    25        4      0.202      0.202      0.201      0.201
#>  8     0.5    25        4      0.205      0.205      0.204      0.204
#>  9     0.5    25        4      0.205      0.205      0.204      0.204
#> 10     0.5    25        4      0.207      0.207      0.207      0.207
#> # ℹ 6,905 more rows
#> # ℹ 546 more variables: wvlgth_005 <dbl>, wvlgth_006 <dbl>,
#> #   wvlgth_007 <dbl>, wvlgth_008 <dbl>, wvlgth_009 <dbl>,
#> #   wvlgth_010 <dbl>, wvlgth_011 <dbl>, wvlgth_012 <dbl>,
#> #   wvlgth_013 <dbl>, wvlgth_014 <dbl>, wvlgth_015 <dbl>,
#> #   wvlgth_016 <dbl>, wvlgth_017 <dbl>, wvlgth_018 <dbl>,
#> #   wvlgth_019 <dbl>, wvlgth_020 <dbl>, wvlgth_021 <dbl>, …
…
