Ames data set — data_ames • modeldatatoo
…
    Ames data set

    Usage

data_ames()

    Value

tibble

    tibble print

data_ames()
#> # A tibble: 2,930 x 74
#>    ms_sub~1 ms_zo~2 lot_f~3 lot_a~4 street alley lot_s~5 land_~6 utili~7 lot_c~8
#>  * <fct>    <fct>     <dbl>   <int> <fct>  <fct> <fct>   <fct>   <fct>   <fct>  
#>  1 One_Sto~ Reside~     141   31770 Pave   No_A~ Slight~ Lvl     AllPub  Corner 
#>  2 One_Sto~ Reside~      80   11622 Pave   No_A~ Regular Lvl     AllPub  Inside 
#>  3 One_Sto~ Reside~      81   14267 Pave   No_A~ Slight~ Lvl     AllPub  Corner 
#>  4 One_Sto~ Reside~      93   11160 Pave   No_A~ Regular Lvl     AllPub  Corner 
#>  5 Two_Sto~ Reside~      74   13830 Pave   No_A~ Slight~ Lvl     AllPub  Inside 
#>  6 Two_Sto~ Reside~      78    9978 Pave   No_A~ Slight~ Lvl     AllPub  Inside 
#>  7 One_Sto~ Reside~      41    4920 Pave   No_A~ Regular Lvl     AllPub  Inside 
#>  8 One_Sto~ Reside~      43    5005 Pave   No_A~ Slight~ HLS     AllPub  Inside 
#>  9 One_Sto~ Reside~      39    5389 Pave   No_A~ Slight~ Lvl     AllPub  Inside 
#> 10 Two_Sto~ Reside~      60    7500 Pave   No_A~ Regular Lvl     AllPub  Inside 
#> # ... with 2,920 more rows, 64 more variables: land_slope <fct>,
#> #   neighborhood <fct>, condition_1 <fct>, condition_2 <fct>, bldg_type <fct>,
#> #   house_style <fct>, overall_cond <fct>, year_built <int>,
#> #   year_remod_add <int>, roof_style <fct>, roof_matl <fct>,
#> #   exterior_1st <fct>, exterior_2nd <fct>, mas_vnr_type <fct>,
#> #   mas_vnr_area <dbl>, exter_cond <fct>, foundation <fct>, bsmt_cond <fct>,
#> #   bsmt_exposure <fct>, bsmt_fin_type_1 <fct>, bsmt_fin_sf_1 <dbl>, ...
…
