Predictions from GPT Detectors — data_detectors • modeldatatoo
…
document_id
A unique identifier for the supplied essay. Some
essays were supplied to multiple detectors. Note that some essays
are AI-revised derivatives of others.

prompt
For essays that were written by AI, a descriptor for the
form of "prompt engineering" passed to the model.

    tibble print

data_detectors()
#> # A tibble: 6,185 x 9
#>    kind  .pred_AI .pred_class detector     native name  model document_id prompt
#>    <fct>    <dbl> <fct>       <chr>        <chr>  <chr> <chr>       <dbl> <chr> 
#>  1 Human 1.00     AI          Sapling      No     Real~ Human         497 <NA>  
#>  2 Human 0.828    AI          Crossplag    No     Real~ Human         278 <NA>  
#>  3 Human 0.000214 Human       Crossplag    Yes    Real~ Human         294 <NA>  
#>  4 AI    0        Human       ZeroGPT      <NA>   Fake~ GPT3          671 Plain 
#>  5 AI    0.00178  Human       Originality~ <NA>   Fake~ GPT4          717 Eleva~
#>  6 Human 0.000178 Human       HFOpenAI     Yes    Real~ Human         855 <NA>  
#>  7 AI    0.992    AI          HFOpenAI     <NA>   Fake~ GPT3          533 Plain 
#>  8 AI    0.0226   Human       Crossplag    <NA>   Fake~ GPT4          484 Eleva~
#>  9 Human 0        Human       ZeroGPT      Yes    Real~ Human         781 <NA>  
#> 10 Human 1.00     AI          Sapling      No     Real~ Human         460 <NA>  
#> # i 6,175 more rows
…
    Examples

# \donttest{
data_detectors()
#> # A tibble: 6,185 × 9
#>    kind  .pred_AI .pred_class detector      native name  model document_id
#>    <fct>    <dbl> <fct>       <chr>         <chr>  <chr> <chr>       <dbl>
#>  1 Human 1.00     AI          Sapling       No     Real… Human         497
#>  2 Human 0.828    AI          Crossplag     No     Real… Human         278
#>  3 Human 0.000214 Human       Crossplag     Yes    Real… Human         294
#>  4 AI    0        Human       ZeroGPT       NA     Fake… GPT3          671
#>  5 AI    0.00178  Human       OriginalityAI NA     Fake… GPT4          717
#>  6 Human 0.000178 Human       HFOpenAI      Yes    Real… Human         855
#>  7 AI    0.992    AI          HFOpenAI      NA     Fake… GPT3          533
#>  8 AI    0.0226   Human       Crossplag     NA     Fake… GPT4          484
#>  9 Human 0        Human       ZeroGPT       Yes    Real… Human         781
#> 10 Human 1.00     AI          Sapling       No     Real… Human         460
#> # ℹ 6,175 more rows
#> # ℹ 1 more variable: prompt <chr>
…
