NYC Building Complaints — data_building_complaints • modeldatatoo
…
community_board
Community board. 3-digit identifier: Borough code = first position, last 2 = community board

complaint_category
Complaint category

complaint_priority
Complaint priority

    tibble print

data_building_complaints()
#> # A tibble: 4,234 x 11
#>    days_to_disposition status year_entered latitude longitude borough 
#>                  <dbl> <chr>  <fct>           <dbl>     <dbl> <fct>   
#>  1                  72 ACTIVE 2023             40.7     -74.0 Brooklyn
#>  2                   1 ACTIVE 2023             40.6     -74.0 Brooklyn
#>  3                  41 ACTIVE 2023             40.7     -73.9 Queens  
#>  4                  45 ACTIVE 2023             40.7     -73.8 Queens  
#>  5                  16 ACTIVE 2023             40.6     -74.0 Brooklyn
#>  6                  62 ACTIVE 2023             40.7     -73.8 Queens  
#>  7                  56 ACTIVE 2023             40.7     -74.0 Brooklyn
#>  8                  11 ACTIVE 2023             40.7     -74.0 Brooklyn
#>  9                  35 ACTIVE 2023             40.7     -73.8 Queens  
#> 10                  38 ACTIVE 2023             40.7     -73.9 Queens  
#> # i 4,224 more rows
#> # i 5 more variables: special_district <fct>, unit <fct>,
#> #   community_board <fct>, complaint_category <fct>, complaint_priority <fct>
…
    Examples

# \donttest{
data_building_complaints()
#> # A tibble: 4,234 × 11
#>    days_to_disposition status year_entered latitude longitude borough 
#>                  <dbl> <chr>  <fct>           <dbl>     <dbl> <fct>   
#>  1                  72 ACTIVE 2023             40.7     -74.0 Brooklyn
#>  2                   1 ACTIVE 2023             40.6     -74.0 Brooklyn
#>  3                  41 ACTIVE 2023             40.7     -73.9 Queens  
#>  4                  45 ACTIVE 2023             40.7     -73.8 Queens  
#>  5                  16 ACTIVE 2023             40.6     -74.0 Brooklyn
#>  6                  62 ACTIVE 2023             40.7     -73.8 Queens  
#>  7                  56 ACTIVE 2023             40.7     -74.0 Brooklyn
#>  8                  11 ACTIVE 2023             40.7     -74.0 Brooklyn
#>  9                  35 ACTIVE 2023             40.7     -73.8 Queens  
#> 10                  38 ACTIVE 2023             40.7     -73.9 Queens  
#> # ℹ 4,224 more rows
#> # ℹ 5 more variables: special_district <fct>, unit <fct>,
#> #   community_board <fct>, complaint_category <fct>,
#> #   complaint_priority <fct>
…
