animals data set — data_animals • modeldatatoo
…
    ...
Arguments passed to pins::pin_read().

    Value

tibble

    Details

    This data set contains quite a bit of missing data and malformed fields.

    tibble print

data_animals()
#> # A tibble: 610 x 48
#>    text    colour lifespan weight kingdom class phylum diet  conservation_status
#>    <chr>   <chr>  <chr>    <chr>  <chr>   <chr> <chr>  <chr> <chr>              
#>  1 "Aardv~ Brown~ 23 years 60kg ~ Animal~ Mamm~ Chord~ Omni~ Least Concern      
#>  2 "Abyss~ Fawn,~ <NA>     <NA>   <NA>    <NA>  <NA>   <NA>  <NA>               
#>  3 "Adeli~ Black~ 10 - 20~ 3kg -~ Animal~ Aves  Chord~ Carn~ Least Concern      
#>  4 "Affen~ Black~ <NA>     <NA>   <NA>    <NA>  <NA>   <NA>  <NA>               
#>  5 "Afgha~ Black~ <NA>     <NA>   <NA>    <NA>  <NA>   <NA>  <NA>               
#>  6 "Afric~ Grey,~ 60 - 70~ 3,600~ Animal~ Mamm~ Chord~ Herb~ Threatened         
#>  7 "Afric~ Black~ 15 - 20~ 1.4kg~ Animal~ Mamm~ Chord~ Omni~ Least Concern      
#>  8 "Afric~ Brown~ 8 - 15 ~ 25g -~ Animal~ Amph~ Chord~ Carn~ Least Concern      
#>  9 "Afric~ Grey,~ 60 - 70~ 900kg~ Animal~ Mamm~ Chord~ Herb~ Endangered         
#> 10 "Afric~ Black~ 15 - 20~ 1.4kg~ Animal~ Mamm~ Chord~ Omni~ Least Concern      
#> # i 600 more rows
#> # i 39 more variables: order <chr>, scientific_name <chr>, skin_type <chr>,
#> #   habitat <chr>, predators <chr>, family <chr>, lifestyle <chr>,
#> #   average_litter_size <chr>, genus <chr>, top_speed <chr>,
#> #   favourite_food <chr>, main_prey <chr>, type <chr>, common_name <chr>,
#> #   group <chr>, size <chr>, distinctive_features <chr>, size_l <chr>,
#> #   origin <chr>, special_features <chr>, location <chr>, ...
…
    Examples

# \donttest{
data_animals()
#> # A tibble: 610 × 48
#>    text                  colour lifespan weight kingdom class phylum diet 
#>    <chr>                 <chr>  <chr>    <chr>  <chr>   <chr> <chr>  <chr>
#>  1 "Aardvark Classifica… Brown… 23 years 60kg … Animal… Mamm… Chord… Omni…
#>  2 "Abyssinian History … Fawn,… NA       NA     NA      NA    NA     NA   
#>  3 "Adelie Penguin Clas… Black… 10 - 20… 3kg -… Animal… Aves  Chord… Carn…
#>  4 "Affenpinscher Histo… Black… NA       NA     NA      NA    NA     NA   
#>  5 "Afghan Hound Histor… Black… NA       NA     NA      NA    NA     NA   
#>  6 "African Bush Elepha… Grey,… 60 - 70… 3,600… Animal… Mamm… Chord… Herb…
#>  7 "African Civet Class… Black… 15 - 20… 1.4kg… Animal… Mamm… Chord… Omni…
#>  8 "African Clawed Frog… Brown… 8 - 15 … 25g -… Animal… Amph… Chord… Carn…
#>  9 "African Forest Elep… Grey,… 60 - 70… 900kg… Animal… Mamm… Chord… Herb…
#> 10 "African Palm Civet … Black… 15 - 20… 1.4kg… Animal… Mamm… Chord… Omni…
#> # ℹ 600 more rows
#> # ℹ 40 more variables: conservation_status <chr>, order <chr>,
#> #   scientific_name <chr>, skin_type <chr>, habitat <chr>,
#> #   predators <chr>, family <chr>, lifestyle <chr>,
#> #   average_litter_size <chr>, genus <chr>, top_speed <chr>,
#> #   favourite_food <chr>, main_prey <chr>, type <chr>, common_name <chr>,
#> #   group <chr>, size <chr>, distinctive_features <chr>, size_l <chr>, …
…
