Pharmaceutical manufacturing monitoring data set — data_pharma_bioreactors • modeldatatoo
…
Three large-scale bioreactors were also seeded with cells from the same
batch and monitored daily for 14 days

Notes on Data

The intensity values have undergone signal processing up to smoothing. See
the reference for more details.

License

data_pharma_bioreactors()
#> # A tibble: 664,524 x 6
#>    reactor_id   day glucose wave_number intensity size 
#>    <chr>      <int>   <dbl>       <dbl>     <dbl> <chr>
#>  1 S_01           1    24.7         407   0.909   small
#>  2 S_01           1    24.7         408   0.858   small
#>  3 S_01           1    24.7         409   0.766   small
#>  4 S_01           1    24.7         410   0.627   small
#>  5 S_01           1    24.7         411   0.448   small
#>  6 S_01           1    24.7         412   0.236   small
#>  7 S_01           1    24.7         413   0.00707 small
#>  8 S_01           1    24.7         414  -0.222   small
#>  9 S_01           1    24.7         415  -0.438   small
#> 10 S_01           1    24.7         416  -0.629   small
#> # i 664,514 more rows
…
tibble::glimpse(data_pharma_bioreactors())
#> Rows: 664,524
#> Columns: 6
#> $ reactor_id  <chr> "S_01", "S_01", "S_01", "S_01", "S_01", "S_01", "S_01", "S~
#> $ day         <int> 1, 1, 1, 1, 1, 1, 1, 1, 1, 1, 1, 1, 1, 1, 1, 1, 1, 1, 1, 1~
#> $ glucose     <dbl> 24.74713, 24.74713, 24.74713, 24.74713, 24.74713, 24.74713~
#> $ wave_number <dbl> 407, 408, 409, 410, 411, 412, 413, 414, 415, 416, 417, 418~
#> $ intensity   <dbl> 0.909439216, 0.857607637, 0.766150467, 0.626862221, 0.4480~
#> $ size        <chr> "small", "small", "small", "small", "small", "small", "sma~

    Examples

# \donttest{
data_pharma_bioreactors()
#> # A tibble: 664,524 × 6
#>    reactor_id   day glucose wave_number intensity size 
#>    <chr>      <int>   <dbl>       <dbl>     <dbl> <chr>
#>  1 S_01           1    24.7         407   0.909   small
#>  2 S_01           1    24.7         408   0.858   small
#>  3 S_01           1    24.7         409   0.766   small
#>  4 S_01           1    24.7         410   0.627   small
#>  5 S_01           1    24.7         411   0.448   small
#>  6 S_01           1    24.7         412   0.236   small
#>  7 S_01           1    24.7         413   0.00707 small
#>  8 S_01           1    24.7         414  -0.222   small
#>  9 S_01           1    24.7         415  -0.438   small
#> 10 S_01           1    24.7         416  -0.629   small
#> # ℹ 664,514 more rows
…
