Chicago taxi data set — data_taxi • modeldatatoo
…
extras
The cost of extra charges for the trip, in USD.

total_cost
The total cost of the trip, in USD. This is the
sum of the previous three columns plus tip.

payment_type
Type of payment for the trip. A factor with levels
"Credit Card", "Dispute", "Mobile", "No Charge", "Prcard", and "Unknown".

    tibble print

data_taxi()
#> # A tibble: 10,000 x 7
#>    tip   distance company                      local dow   month  hour
#>    <fct>    <dbl> <fct>                        <fct> <fct> <fct> <int>
#>  1 yes      17.2  Chicago Independents         no    Thu   Feb      16
#>  2 yes       0.88 City Service                 yes   Thu   Mar       8
#>  3 yes      18.1  other                        no    Mon   Feb      18
#>  4 yes      20.7  Chicago Independents         no    Mon   Apr       8
#>  5 yes      12.2  Chicago Independents         no    Sun   Mar      21
#>  6 yes       0.94 Sun Taxi                     yes   Sat   Apr      23
#>  7 yes      17.5  Flash Cab                    no    Fri   Mar      12
#>  8 yes      17.7  other                        no    Sun   Jan       6
#>  9 yes       1.85 Taxicab Insurance Agency Llc no    Fri   Apr      12
#> 10 yes       1.47 City Service                 no    Tue   Mar      14
#> # i 9,990 more rows
…
    Examples

# \donttest{
data_taxi()
#> # A tibble: 10,000 × 7
#>    tip   distance company                      local dow   month  hour
#>    <fct>    <dbl> <fct>                        <fct> <fct> <fct> <int>
#>  1 yes      17.2  Chicago Independents         no    Thu   Feb      16
#>  2 yes       0.88 City Service                 yes   Thu   Mar       8
#>  3 yes      18.1  other                        no    Mon   Feb      18
#>  4 yes      20.7  Chicago Independents         no    Mon   Apr       8
#>  5 yes      12.2  Chicago Independents         no    Sun   Mar      21
#>  6 yes       0.94 Sun Taxi                     yes   Sat   Apr      23
#>  7 yes      17.5  Flash Cab                    no    Fri   Mar      12
#>  8 yes      17.7  other                        no    Sun   Jan       6
#>  9 yes       1.85 Taxicab Insurance Agency Llc no    Fri   Apr      12
#> 10 yes       1.47 City Service                 no    Tue   Mar      14
#> # ℹ 9,990 more rows
…
